<?xml version="1.0" encoding="UTF-8" standalone="no"?>
<graphml xmlns:xsi="http://www.w3.org/2001/XMLSchema-instance" xmlns:y="http://www.yworks.com/xml/graphml" xsi:schemaLocation="http://graphml.graphdrawing.org/xmlns http://www.yworks.com/xml/schema/graphml/1.1/ygraphml.xsd" xmlns="http://graphml.graphdrawing.org/xmlns">
  <key for="node" id="ng" yfiles.type="nodegraphics"/>
  <key for="edge" id="eg" yfiles.type="edgegraphics"/>
  <key attr.name="description" attr.type="string" for="node" id="dn"/>
  <graph edgedefault="directed" id="cif:">
    <node id="cif::code" yfiles.foldertype="group">
      <data key="dn">Declarations</data>
      <data key="ng">
        <y:ProxyAutoBoundsNode>
          <y:Realizers active="0">
            <y:GroupNode>
              <y:Geometry height="<height>" width="<width>"/>
              <y:NodeLabel alignment="left" autoSizePolicy="node_width" backgroundColor="#eeee80" modelName="internal" modelPosition="t">     Declarations</y:NodeLabel>
              <y:NodeLabel alignment="left" autoSizePolicy="content" borderDistance="18" bottomInset="3" leftInset="3" modelName="internal" modelPosition="t" rightInset="3" topInset="3">&lt;html&gt;&lt;span style="color:#0000ff;"&gt;cont&lt;/span&gt;&amp;nbsp;&lt;span style="color:#000000;"&gt;x&lt;/span&gt;&amp;nbsp;&lt;span style="color:#0000ff;"&gt;der&lt;/span&gt;&amp;nbsp;&lt;span style="color:#000000;"&gt;x&lt;/span&gt;&amp;nbsp;&lt;span style="color:#402020;"&gt;+&lt;/span&gt;&amp;nbsp;&lt;span style="color:#000000;"&gt;x&lt;/span&gt;&lt;span style="color:#402020;"&gt;;&lt;/span&gt;&lt;/html&gt;</y:NodeLabel>
              <y:BorderStyle lineType="dashed"/>
              <y:Fill color="#ffffcc"/>
              <y:Shape type="rectangle"/>
              <y:State closed="false"/>
            </y:GroupNode>
            <y:GroupNode>
              <y:Geometry height="<height>" width="<width>"/>
              <y:NodeLabel alignment="left" autoSizePolicy="node_width" backgroundColor="#eeee80" modelName="internal" modelPosition="t">     Declarations</y:NodeLabel>
              <y:NodeLabel alignment="left" autoSizePolicy="content" borderDistance="18" bottomInset="3" leftInset="3" modelName="internal" modelPosition="t" rightInset="3" topInset="3">...</y:NodeLabel>
              <y:BorderStyle lineType="dashed"/>
              <y:Fill color="#ffffcc"/>
              <y:Shape type="rectangle"/>
              <y:State closed="true"/>
            </y:GroupNode>
          </y:Realizers>
        </y:ProxyAutoBoundsNode>
      </data>
    </node>
  </graph>
</graphml>
