WARNING: File "simulator/values/switch_exprs.cif": Semantic warning at line 28, column 51: Switch "else" is superfluous, as all locations already have a "case".
WARNING: File "simulator/values/switch_exprs.cif": Semantic warning at line 29, column 51: Switch "else" is superfluous, as all locations already have a "case".
WARNING: File "simulator/values/switch_exprs.cif": Semantic warning at line 36, column 49: Switch "else" is superfluous, as all locations already have a "case".
WARNING: File "simulator/values/switch_exprs.cif": Semantic warning at line 37, column 49: Switch "else" is superfluous, as all locations already have a "case".
