Reading CIF file "datasynth/simplify_se_excl_plant_invs_on.cif".
Preprocessing CIF specification.
Converting CIF specification to internal format.

CIF variables and location pointers:
  Nr     Kind               Type       Name  Group  BDD vars  CIF values  BDD values  Values used
  -----  -----------------  ---------  ----  -----  --------  ----------  ----------  -----------
  1      discrete variable  int[0..5]  p2.x  0      3 * 2     6 * 2       8 * 2       75%
  -----  -----------------  ---------  ----  -----  --------  ----------  ----------  -----------
  Total                                      1      6         12          16          75%

Starting data-based synthesis.

Invariant (components state req invariant):  true
Invariant (locations state req invariant):   true
Invariant (system state req invariant):      true

Initial   (discrete variable 0):             true
Initial   (discrete variables):              true
Initial   (components init predicate):       true
Initial   (aut/locs init predicate):         true
Initial   (auts/locs init predicate):        true
Initial   (uncontrolled system):             true
Initial   (system, combined init/req inv):   true

Marked    (components marker predicate):     true
Marked    (aut/locs marker predicate):       true
Marked    (auts/locs marker predicate):      true
Marked    (uncontrolled system):             true
Marked    (system, combined marked/req inv): true

State/event exclusion plants:
  Event "e2b" needs:
    p2.x = 4 or (p2.x = 5 or p2.x = 3)
  Event "e2c" needs:
    p2.x != 1
  Event "e2d" needs:
    p2.x = 4 or p2.x = 5

State/event exclusion requirements:
  None

Uncontrolled system (state/event exclusion plants not applied yet):
  State: (controlled-behavior: ?)
    Edge: (event: e2a) (guard: true) (assignments: p2.x := p2.x + 1)
    Edge: (event: e2b) (guard: p2.x = 5 or p2.x = 3)
    Edge: (event: e2c) (guard: 2 <= p2.x and p2.x <= 5)
    Edge: (event: e2d) (guard: p2.x = 4 or (p2.x = 5 or p2.x = 3))

Restricting behavior using state/event exclusion plants.

Edge (event: e2d) (guard: p2.x = 4 or (p2.x = 5 or p2.x = 3)): guard: p2.x = 4 or (p2.x = 5 or p2.x = 3) -> p2.x = 4 or p2.x = 5 [plant: p2.x = 4 or p2.x = 5].

Uncontrolled system:
  State: (controlled-behavior: ?)
    Edge: (event: e2a) (guard: true) (assignments: p2.x := p2.x + 1)
    Edge: (event: e2b) (guard: p2.x = 5 or p2.x = 3)
    Edge: (event: e2c) (guard: 2 <= p2.x and p2.x <= 5)
    Edge: (event: e2d) (guard: p2.x = 4 or (p2.x = 5 or p2.x = 3) -> p2.x = 4 or p2.x = 5)

Initialized controlled-behavior predicate using invariants: true.

Extending controlled-behavior predicate using variable ranges.

Controlled behavior: true -> true [range: true, variable: discrete variable "p2.x" of type "int[0..5]" (group: 0, domain: 0+1, BDD variables: 3, CIF/BDD values: 6/8)].

Extended controlled-behavior predicate using variable ranges: true.

Restricting behavior using state/event exclusion requirements.

Round 1: started.

Round 1: computing backward controlled-behavior predicate.
Backward controlled-behavior: true [marker predicate]
Backward controlled-behavior: true -> true [restricted to current/previous controlled-behavior predicate: true]
Backward reachability: iteration 1.
Backward controlled-behavior: true [fixed point].

Round 1: computing backward uncontrolled bad-state predicate.
Backward uncontrolled bad-state: false [current/previous controlled behavior predicate]
Backward reachability: iteration 1.

Round 1: computing forward controlled-behavior predicate.
Forward controlled-behavior: true [initialization predicate]
Forward reachability: iteration 1.

Round 1: finished, controlled behavior is stable.

Computing controlled system guards.

Edge (event: e2a) (guard: true) (assignments: p2.x := p2.x + 1): guard: true -> p2.x != 5.
Edge (event: e2c) (guard: 2 <= p2.x and p2.x <= 5): guard: 2 <= p2.x and p2.x <= 5 -> 2 <= p2.x and p2.x <= 5.
Edge (event: e2d) (guard: p2.x = 4 or (p2.x = 5 or p2.x = 3) -> p2.x = 4 or p2.x = 5): guard: p2.x = 4 or p2.x = 5 -> p2.x = 4 or p2.x = 5.

Final synthesis result:
  State: (controlled-behavior: true)
    Edge: (event: e2a) (guard: true -> p2.x != 5) (assignments: p2.x := p2.x + 1)
    Edge: (event: e2b) (guard: p2.x = 5 or p2.x = 3)
    Edge: (event: e2c) (guard: 2 <= p2.x and p2.x <= 5 -> 2 <= p2.x and p2.x <= 5)
    Edge: (event: e2d) (guard: p2.x = 4 or (p2.x = 5 or p2.x = 3) -> p2.x = 4 or p2.x = 5)

Controlled system:                     exactly 6 states.

Initial (synthesis result):            true
Initial (uncontrolled system):         true
Initial (controlled system):           true
Initial (removed by supervisor):       false
Initial (added by supervisor):         true

Simplification of controlled system under the assumption of the state/event exclusion plant invariants:
  Event e2b: guard: p2.x = 5 or p2.x = 3 -> p2.x = 1 or (p2.x = 3 or p2.x = 5) [assume p2.x = 4 or (p2.x = 5 or p2.x = 3)].
  Event e2d: guard: p2.x = 4 or p2.x = 5 -> not(p2.x = 2 or p2.x = 3) [assume p2.x = 4 or p2.x = 5].

Constructing output CIF specification.
Writing output CIF file "datasynth/simplify_se_excl_plant_invs_on.ctrlsys.real.cif".
