ERROR: Code generation to C99 failed for CIF file "codegen/unsupported2.cif".
CAUSE: CIF code generator failed due to unsatisfied preconditions:
 - Unsupported specification: specifications without automata are currently not supported.
